{
    "resolution": "640*640",
    "timestamp": 1411214590189,
    "watermakers": [
                    {
                    "id": "1",
                    "name": "loveyou",
                    "icon": "loveyou/loveyou_icon.png",
                    "makers": [
                               {
                               "pic": "loveyou/loveyou.png",
                               "x": "0.05",
                               "y": "0.59",
                               "type": 2,
                               "editable": false,
                               "pics": []
                               }
                               ]
                    },
                    {
                    "id": "2",
                    "name": "很完美",
                    "icon": "henwanmei/henwanmei_icon.png",
                    "makers": [
                               {
                               "pic": "henwanmei/henwanmei.png",
                               "x": "0.31",
                               "y": "0.70",
                               "type": 2,
                               "editable": false,
                               "pics": []
                               }
                               ]
                    },
                    {
                    "id": "3",
                    "name": "一想到你",
                    "icon": "yixiangdaoni/yixiangdaoni_icon.png",
                    "makers": [
                               {
                               "pic": "yixiangdaoni/yixiangdaoni.png",
                               "x": "0.8",
                               "y": "0.13",
                               "type": 2,
                               "editable": false,
                               "pics": []
                               }
                               ]
                    },
                    {
                    "id": "4",
                    "name": "萌萌哒",
                    "icon": "mengmengda/mengmengda_icon.png",
                    "makers": [
                               {
                               "pic": "mengmengda/mengmengda.png",
                               "x": "0.32",
                               "y": "0.50",
                               "type": 2,
                               "editable": false,
                               "pics": []
                               }
                               ]
                    },
                    {
                    "id": "5",
                    "name": "女王",
                    "icon": "nvwang/nvwang_icon.png",
                    "makers": [
                               {
                               "pic": "nvwang/nvwang.png",
                               "x": "0.36",
                               "y": "0.07",
                               "type": 2,
                               "editable": false,
                               "pics": []
                               }
                               ]
                    },
                    {
                    "id": "6",
                    "name": "值得买",
                    "icon": "nice/nice_icon.png",
                    "makers": [
                               {
                               "pic": "nice/nice.png",
                               "x": "0.29",
                               "y": "0.29",
                               "type": 2,
                               "editable": false,
                               "pics": []
                               }
                               ]
                    },
                    {
                    "id": "7",
                    "name": "药不能停",
                    "icon": "yao/yao_icon.png",
                    "makers": [
                               {
                               "pic": "yao/yao.png",
                               "x": "0.30",
                               "y": "0.73",
                               "type": 2,
                               "editable": false,
                               "pics": []
                               }
                               ]
                    },
                    {
                    "id": "8",
                    "name": "御用贡品",
                    "icon": "yuyonggongpin/yuyong_icon.png",
                    "makers": [
                               {
                               "pic": "yuyonggongpin/yuyong.png",
                               "x": "0.39",
                               "y": "0.37",
                               "type": 2,
                               "editable": false,
                               "pics": []
                               }
                               ]
                    },
                    {
                    "id": "9",
                    "name": "小清新",
                    "icon": "xiaoqingxin/xiaoqingxin_icon.png",
                    "makers": [
                               {
                               "pic": "xiaoqingxin/xiaoqingxin.png",
                               "x": "0.29",
                               "y": "0.24",
                               "type": 2,
                               "editable": false,
                               "pics": []
                               }
                               ]
                    },
                    {
                    "id": "10",
                    "name": "腔调",
                    "icon": "qiangdiao/qiangdiao_icon.png",
                    "makers": [
                               {
                               "pic": "qiangdiao/qiangdiao.png",
                               "x": "0.33",
                               "y": "0.23",
                               "type": 2,
                               "editable": false,
                               "pics": []
                               }
                               ]
                    },
                    {
                    "id": "11",
                    "name": "靠谱",
                    "icon": "kaopu/kaopu_icon.png",
                    "makers": [
                               {
                               "pic": "kaopu/kaopu.png",
                               "x": "0.32",
                               "y": "0.32",
                               "type": 2,
                               "editable": false,
                               "pics": []
                               }
                               ]
                    },
                    {
                    "id": "12",
                    "name": "温暖整个冬天",
                    "icon": "wennuan/wennuan_icon.png",
                    "makers": [
                               {
                               "pic": "wennuan/wennuan.png",
                               "x": "0.12",
                               "y": "0.38",
                               "type": 2,
                               "editable": false,
                               "pics": []
                               }
                               ]
                    },
                    {
                    "id": "13",
                    "name": "淘宝是毒药",
                    "icon": "duyao/duyao_icon.png",
                    "makers": [
                               {
                               "pic": "duyao/duyao.png",
                               "x": "0.05",
                               "y": "0.4",
                               "type": 2,
                               "editable": false,
                               "pics": []
                               }
                               ]
                    },
                    {
                    "id": "14",
                    "name": "负分",
                    "icon": "fufen/fufen_icon.png",
                    "makers": [
                               {
                               "pic": "fufen/fufen.png",
                               "x": "0.18",
                               "y": "0.22",
                               "type": 2,
                               "editable": false,
                               "pics": []
                               }
                               ]
                    },
                    {
                    "id": "15",
                    "name": "就耗这口",
                    "icon": "jiuhaozhekou/jiuhaozhekou_icon.png",
                    "makers": [
                               {
                               "pic": "jiuhaozhekou/jiuhaozhekou.png",
                               "x": "0.04",
                               "y": "0.05",
                               "type": 2,
                               "editable": false,
                               "pics": []
                               }
                               ]
                    },
                    {
                    "id": "16",
                    "name": "满分",
                    "icon": "manfen/manfen_icon.png",
                    "makers": [
                               {
                               "pic": "manfen/manfen.png",
                               "x": "0.28",
                               "y": "0.28",
                               "type": 2,
                               "editable": false,
                               "pics": []
                               }
                               ]
                    },
                    {
                    "id": "17",
                    "name": "2015",
                    "icon": "2015/2015_icon.png",
                    "makers": [
                               {
                               "pic": "2015/2015.png",
                               "x": "0.04",
                               "y": "0.05",
                               "type": 2,
                               "editable": false,
                               "pics": []
                               }
                               ]
                    },
                    {
                    "id": "18",
                    "name": "主妇不绝望",
                    "icon": "bujuewang/bujuewang_icon.png",
                    "makers": [
                               {
                               "pic": "bujuewang/bujuewang.png",
                               "x": "0.19",
                               "y": "0.3",
                               "type": 2,
                               "editable": false,
                               "pics": []
                               }
                               ]
                    },
                    {
                    "id": "19",
                    "name": "放肆的青春",
                    "icon": "qingchun/qingchun_icon.png",
                    "makers": [
                               {
                               "pic": "qingchun/qingchun.png",
                               "x": "0.05",
                               "y": "0.5",
                               "type": 2,
                               "editable": false,
                               "pics": []
                               }
                               ]
                    },
                    {
                    "id": "20",
                    "name": "好心塞",
                    "icon": "haoxinshai/haoxinshai_icon.png",
                    "makers": [
                               {
                               "pic": "haoxinshai/haoxinshai.png",
                               "x": "0.26",
                               "y": "0.79",
                               "type": 2,
                               "editable": false,
                               "pics": []
                               }
                               ]
                    },
                    {
                    "id": "21",
                    "name": "这么近那么远",
                    "icon": "zhemejinnameyuan/zhemejin_icon.png",
                    "makers": [
                               {
                               "pic": "zhemejinnameyuan/zhemejin.png",
                               "x": "0.52",
                               "y": "0.39",
                               "type": 2,
                               "editable": false,
                               "pics": []
                               }
                               ]
                    },
                    {
                    "id": "22",
                    "name": "吃不胖",
                    "icon": "chibupang/chibupang_icon.png",
                    "makers": [
                               {
                               "pic": "chibupang/chibupang.png",
                               "x": "0.34",
                               "y": "0.66",
                               "type": 2,
                               "editable": false,
                               "pics": []
                               }
                               ]
                    },
                    {
                    "id": "23",
                    "name": "没有买卖就没有伤害",
                    "icon": "shanghai/shanghai_icon.png",
                    "makers": [
                               {
                               "pic": "shanghai/shanghai.png",
                               "x": "0.08",
                               "y": "0.60",
                               "type": 2,
                               "editable": false,
                               "pics": []
                               }
                               ]
                    },
                    {
                    "id": "24",
                    "name": "onlyyou",
                    "icon": "onlyyou/onlyyou_icon.png",
                    "makers": [
                               {
                               "pic": "onlyyou/onlyyou.png",
                               "x": "0.28",
                               "y": "0.46",
                               "type": 2,
                               "editable": false,
                               "pics": []
                               }
                               ]
                    },
                    {
                    "id": "25",
                    "name": "nobuynodie",
                    "icon": "nobuynodie/nobuynodie_icon.png",
                    "makers": [
                               {
                               "pic": "nobuynodie/nobuynodie.png",
                               "x": "0.07",
                               "y": "0.06",
                               "type": 2,
                               "editable": false,
                               "pics": []
                               }
                               ]
                    },
                    {
                    "id": "26",
                    "name": "熊孩子",
                    "icon": "xionghaizi/xionghaizi_icon.png",
                    "makers": [
                               {
                               "pic": "xionghaizi/xionghaizi.png",
                               "x": "0.52",
                               "y": "0.63",
                               "type": 2,
                               "editable": false,
                               "pics": []
                               }
                               ]
                    },
                    {
                    "id": "27",
                    "name": "坑爹",
                    "icon": "kengdie/kengdie_icon.png",
                    "makers": [
                               {
                               "pic": "kengdie/kengdie.png",
                               "x": "0.15",
                               "y": "0.76",
                               "type": 2,
                               "editable": false,
                               "pics": []
                               }
                               ]
                    },
                    {
                    "id": "28",
                    "name": "美味",
                    "icon": "meiwei/meiwei_icon.png",
                    "makers": [
                               {
                               "pic": "meiwei/meiwei.png",
                               "x": "0.28",
                               "y": "0.49",
                               "type": 2,
                               "editable": false,
                               "pics": []
                               }
                               ]
                    },
                    {
                    "id": "29",
                    "name": "大海航行靠剁手",
                    "icon": "duoshou/duoshou_icon.png",
                    "makers": [
                               {
                               "pic": "duoshou/duoshou.png",
                               "x": "0.58",
                               "y": "0.71",
                               "type": 2,
                               "editable": false,
                               "pics": []
                               }
                               ]
                    },
                    {
                    "id": "30",
                    "name": "豆逼",
                    "icon": "doubi/doubi_icon.png",
                    "makers": [
                               {
                               "pic": "doubi/doubi.png",
                               "x": "0.67",
                               "y": "0.73",
                               "type": 2,
                               "editable": false,
                               "pics": []
                               }
                               ]
                    },
                    {
                    "id": "31",
                    "name": "有钱",
                    "icon": "youqian/youqian_icon.png",
                    "makers": [
                               {
                               "pic": "youqian/youqian.png",
                               "x": "0.32",
                               "y": "0.38",
                               "type": 2,
                               "editable": false,
                               "pics": []
                               }
                               ]
                    },
                    {
                    "id": "32",
                    "name": "娘娘赏赐",
                    "icon": "niangniangshangci/niangniang_icon.png",
                    "makers": [
                               {
                               "pic": "niangniangshangci/niangniang.png",
                               "x": "0.39",
                               "y": "0.37",
                               "type": 2,
                               "editable": false,
                               "pics": []
                               }
                               ]
                    },
                    {
                    "id": "33",
                    "name": "吃货",
                    "icon": "chihuo/chihuo_icon.png",
                    "makers": [
                               {
                               "pic": "chihuo/chihuo.png",
                               "x": "0.35",
                               "y": "0.24",
                               "type": 2,
                               "editable": false,
                               "pics": []
                               }
                               ]
                    }
                    ]
}