{
  "images" : [
    {
      "idiom" : "universal",
      "scale" : "1x",
      "filename" : "bg_timeline_item.png"
    },
    {
      "idiom" : "universal",
      "scale" : "2x",
      "filename" : "bg_timeline_item@2x.png"
    },
    {
      "idiom" : "universal",
      "scale" : "3x",
      "filename" : "bg_timeline_item@3x.png"
    }
  ],
  "info" : {
    "version" : 1,
    "author" : "xcode"
  }
}